<define-tag pagetitle>DSA-4361-1 libextractor</define-tag>
<define-tag report_date>2018-12-28</define-tag>
<define-tag secrefs>CVE-2018-20430 CVE-2018-20431</define-tag>
<define-tag packages>libextractor</define-tag>
<define-tag isvulnerable>yes</define-tag>
<define-tag fixed>yes</define-tag>
<define-tag fixed-section>no</define-tag>

#use wml::debian::security



</dl>
