<define-tag pagetitle>DLA-3132-1 snakeyaml</define-tag>
<define-tag report_date>2022-10-03</define-tag>
<define-tag secrefs>CVE-2022-25857 CVE-2022-38749 CVE-2022-38750 CVE-2022-38751 Bug#1019218</define-tag>
<define-tag packages>snakeyaml</define-tag>
<define-tag isvulnerable>yes</define-tag>
<define-tag fixed>yes</define-tag>
<define-tag fixed-section>no</define-tag>

#use wml::debian::security

