<define-tag pagetitle>DLA-3148-1 mediawiki</define-tag>
<define-tag report_date>2022-10-12</define-tag>
<define-tag secrefs>CVE-2022-41765 CVE-2022-41767</define-tag>
<define-tag packages>mediawiki</define-tag>
<define-tag isvulnerable>yes</define-tag>
<define-tag fixed>yes</define-tag>
<define-tag fixed-section>no</define-tag>

#use wml::debian::security

