<define-tag pagetitle>DLA-2708-1 php7.0</define-tag>
<define-tag report_date>2021-07-15</define-tag>
<define-tag secrefs>CVE-2019-18218 CVE-2020-7071 CVE-2021-21702 CVE-2021-21704 CVE-2021-21705 Bug#942830 Bug#990575</define-tag>
<define-tag packages>php7.0</define-tag>
<define-tag isvulnerable>yes</define-tag>
<define-tag fixed>yes</define-tag>
<define-tag fixed-section>no</define-tag>

#use wml::debian::security

