<define-tag pagetitle>DSA-5314-1 emacs</define-tag>
<define-tag report_date>2023-1-11</define-tag>
<define-tag secrefs>CVE-2022-45939 Bug#1025009</define-tag>
<define-tag packages>emacs</define-tag>
<define-tag isvulnerable>yes</define-tag>
<define-tag fixed>yes</define-tag>
<define-tag fixed-section>no</define-tag>

#use wml::debian::security



</dl>
