<define-tag pagetitle>DLA-1034-1 php5</define-tag>
<define-tag report_date>2017-7-21</define-tag>
<define-tag secrefs>CVE-2016-10397 CVE-2017-11143 CVE-2017-11144 CVE-2017-11145 CVE-2017-11147</define-tag>
<define-tag packages>php5</define-tag>
<define-tag isvulnerable>yes</define-tag>
<define-tag fixed>yes</define-tag>
<define-tag fixed-section>no</define-tag>

#use wml::debian::security

