<define-tag pagetitle>DLA-2332-2 sane-backends</define-tag>
<define-tag report_date>2020-10-07</define-tag>
<define-tag secrefs>CVE-2020-12862 CVE-2020-12863 CVE-2020-12865 CVE-2020-12867 Bug#961302</define-tag>
<define-tag packages>sane-backends</define-tag>
<define-tag isvulnerable>yes</define-tag>
<define-tag fixed>yes</define-tag>
<define-tag fixed-section>no</define-tag>

#use wml::debian::security

