<define-tag pagetitle>DLA-2250-1 drupal7</define-tag>
<define-tag report_date>2020-06-19</define-tag>
<define-tag secrefs>CVE-2020-13662</define-tag>
<define-tag packages>drupal7</define-tag>
<define-tag isvulnerable>yes</define-tag>
<define-tag fixed>yes</define-tag>
<define-tag fixed-section>no</define-tag>

#use wml::debian::security

