<define-tag pagetitle>DLA-1527-1 ghostscript</define-tag>
<define-tag report_date>2018-9-30</define-tag>
<define-tag secrefs>CVE-2018-16543 CVE-2018-17183 Bug#908303</define-tag>
<define-tag packages>ghostscript</define-tag>
<define-tag isvulnerable>yes</define-tag>
<define-tag fixed>yes</define-tag>
<define-tag fixed-section>no</define-tag>

#use wml::debian::security

