<define-tag pagetitle>DLA-1570-1 mariadb-10.0</define-tag>
<define-tag report_date>2018-11-7</define-tag>
<define-tag secrefs>CVE-2018-3143 CVE-2018-3156 CVE-2018-3174 CVE-2018-3251 CVE-2018-3282</define-tag>
<define-tag packages>mariadb-10.0</define-tag>
<define-tag isvulnerable>yes</define-tag>
<define-tag fixed>yes</define-tag>
<define-tag fixed-section>no</define-tag>

#use wml::debian::security

