<define-tag pagetitle>DSA-5280-1 grub2</define-tag>
<define-tag report_date>2022-11-15</define-tag>
<define-tag secrefs>CVE-2022-2601 CVE-2022-3775</define-tag>
<define-tag packages>grub2</define-tag>
<define-tag isvulnerable>yes</define-tag>
<define-tag fixed>yes</define-tag>
<define-tag fixed-section>no</define-tag>

#use wml::debian::security



</dl>
