<define-tag pagetitle>DSA-5291-1 mujs</define-tag>
<define-tag report_date>2022-11-28</define-tag>
<define-tag secrefs>CVE-2022-30974 CVE-2022-30975 CVE-2022-44789</define-tag>
<define-tag packages>mujs</define-tag>
<define-tag isvulnerable>yes</define-tag>
<define-tag fixed>yes</define-tag>
<define-tag fixed-section>no</define-tag>

#use wml::debian::security



</dl>
