<define-tag pagetitle>DLA-1907-1 libav</define-tag>
<define-tag report_date>2019-09-30</define-tag>
<define-tag secrefs>CVE-2017-9987 CVE-2018-5766 CVE-2018-11102 CVE-2019-14372 CVE-2019-14442</define-tag>
<define-tag packages>libav</define-tag>
<define-tag isvulnerable>yes</define-tag>
<define-tag fixed>yes</define-tag>
<define-tag fixed-section>no</define-tag>

#use wml::debian::security

