<define-tag pagetitle>DLA-1987-1 firefox-esr</define-tag>
<define-tag report_date>2019-11-10</define-tag>
<define-tag secrefs>CVE-2019-11757 CVE-2019-11759 CVE-2019-11760 CVE-2019-11761 CVE-2019-11762 CVE-2019-11763 CVE-2019-11764 CVE-2019-15903</define-tag>
<define-tag packages>firefox-esr</define-tag>
<define-tag isvulnerable>yes</define-tag>
<define-tag fixed>yes</define-tag>
<define-tag fixed-section>no</define-tag>

#use wml::debian::security

