<define-tag pagetitle>DLA-2043-2 gdk-pixbuf</define-tag>
<define-tag report_date>2019-12-20</define-tag>
<define-tag packages>gdk-pixbuf</define-tag>
<define-tag isvulnerable>yes</define-tag>
<define-tag fixed>yes</define-tag>
<define-tag fixed-section>no</define-tag>

#use wml::debian::security

