<define-tag pagetitle>DLA-1709-1 waagent</define-tag>
<define-tag report_date>2019-3-13</define-tag>
<define-tag secrefs>CVE-2019-0804</define-tag>
<define-tag packages>waagent</define-tag>
<define-tag isvulnerable>yes</define-tag>
<define-tag fixed>yes</define-tag>
<define-tag fixed-section>no</define-tag>

#use wml::debian::security

