<define-tag pagetitle>DLA-504-1 libxstream-java</define-tag>
<define-tag report_date>2016-6-8</define-tag>
<define-tag secrefs>CVE-2016-3674 Bug#819455</define-tag>
<define-tag packages>libxstream-java</define-tag>
<define-tag isvulnerable>yes</define-tag>
<define-tag fixed>yes</define-tag>
<define-tag fixed-section>no</define-tag>

#use wml::debian::security

