<define-tag pagetitle>DLA-511-1 libtorrent-rasterbar</define-tag>
<define-tag report_date>2016-6-11</define-tag>
<define-tag secrefs>CVE-2016-5301 Bug#826380</define-tag>
<define-tag packages>libtorrent-rasterbar</define-tag>
<define-tag isvulnerable>yes</define-tag>
<define-tag fixed>yes</define-tag>
<define-tag fixed-section>no</define-tag>

#use wml::debian::security

